G04 #@! TF.GenerationSoftware,KiCad,Pcbnew,5.1.7-a382d34a8~88~ubuntu20.04.1*
G04 #@! TF.CreationDate,2020-12-22T21:10:37+01:00*
G04 #@! TF.ProjectId,j-link_adapter,6a2d6c69-6e6b-45f6-9164-61707465722e,000*
G04 #@! TF.SameCoordinates,Original*
G04 #@! TF.FileFunction,Soldermask,Bot*
G04 #@! TF.FilePolarity,Negative*
%FSLAX46Y46*%
G04 Gerber Fmt 4.6, Leading zero omitted, Abs format (unit mm)*
G04 Created by KiCad (PCBNEW 5.1.7-a382d34a8~88~ubuntu20.04.1) date 2020-12-22 21:10:37*
%MOMM*%
%LPD*%
G01*
G04 APERTURE LIST*
%ADD10C,2.000000*%
%ADD11C,1.420000*%
%ADD12C,2.100000*%
%ADD13C,2.500000*%
%ADD14O,1.700000X1.700000*%
%ADD15R,1.700000X1.700000*%
G04 APERTURE END LIST*
D10*
X115000000Y-88000000D03*
X115000000Y-84000000D03*
D11*
X158730000Y-70095000D03*
X161270000Y-71365000D03*
X158730000Y-72635000D03*
X161270000Y-73905000D03*
D12*
X158730000Y-75135000D03*
D13*
X161270000Y-68865000D03*
D12*
X136230000Y-60445000D03*
D11*
X136230000Y-52865000D03*
X136230000Y-50325000D03*
X136230000Y-47785000D03*
X138770000Y-54135000D03*
X138770000Y-51595000D03*
X138770000Y-49055000D03*
D13*
X138770000Y-46555000D03*
D11*
X136230000Y-55405000D03*
X138770000Y-56675000D03*
X136230000Y-57945000D03*
X138770000Y-59215000D03*
D14*
X143540000Y-85600000D03*
X141000000Y-85600000D03*
D15*
X138460000Y-85600000D03*
D12*
X143730000Y-57900000D03*
D11*
X143730000Y-52860000D03*
X143730000Y-50320000D03*
X143730000Y-47780000D03*
X146270000Y-54130000D03*
X146270000Y-51590000D03*
X146270000Y-49050000D03*
D13*
X146270000Y-46550000D03*
D11*
X143730000Y-55400000D03*
X146270000Y-56670000D03*
D12*
X151230000Y-55380000D03*
D11*
X151230000Y-52880000D03*
X151230000Y-50340000D03*
X151230000Y-47800000D03*
X153770000Y-54150000D03*
X153770000Y-51610000D03*
X153770000Y-49070000D03*
D13*
X153770000Y-46570000D03*
D11*
X158730000Y-47820000D03*
X161270000Y-49090000D03*
X158730000Y-50360000D03*
X161270000Y-51630000D03*
D12*
X158730000Y-52860000D03*
D13*
X161270000Y-46590000D03*
D15*
X136792000Y-66444000D03*
D14*
X136792000Y-68984000D03*
X136792000Y-71524000D03*
X136792000Y-74064000D03*
X136792000Y-76604000D03*
X136792000Y-79144000D03*
D15*
X127435800Y-85591000D03*
D14*
X129975800Y-85591000D03*
X132515800Y-85591000D03*
D15*
X106000000Y-45380000D03*
D14*
X108540000Y-45380000D03*
X106000000Y-47920000D03*
X108540000Y-47920000D03*
X106000000Y-50460000D03*
X108540000Y-50460000D03*
X106000000Y-53000000D03*
X108540000Y-53000000D03*
X106000000Y-55540000D03*
X108540000Y-55540000D03*
X106000000Y-58080000D03*
X108540000Y-58080000D03*
X106000000Y-60620000D03*
X108540000Y-60620000D03*
X106000000Y-63160000D03*
X108540000Y-63160000D03*
X106000000Y-65700000D03*
X108540000Y-65700000D03*
X106000000Y-68240000D03*
X108540000Y-68240000D03*
D10*
X118700000Y-45380000D03*
X122510000Y-47920000D03*
X118700000Y-50460000D03*
X122510000Y-68240000D03*
X118700000Y-60620000D03*
X122510000Y-53000000D03*
X118700000Y-70780000D03*
X118700000Y-55540000D03*
X122510000Y-73320000D03*
X118700000Y-65700000D03*
X122510000Y-58080000D03*
X122510000Y-63160000D03*
M02*
