M48
; DRILL file {KiCad 5.1.7-a382d34a8~88~ubuntu20.04.1} date Tue Dec 22 21:10:34 2020
; FORMAT={-:-/ absolute / inch / decimal}
; #@! TF.CreationDate,2020-12-22T21:10:34+01:00
; #@! TF.GenerationSoftware,Kicad,Pcbnew,5.1.7-a382d34a8~88~ubuntu20.04.1
; #@! TF.FileFunction,NonPlated,1,4,NPTH
FMAT,2
INCH
T1C0.0827
T2C0.0984
%
G90
G05
T1
X5.9539Y-2.1803
X5.3634Y-2.3797
X5.6587Y-2.2795
X6.2492Y-2.0811
X6.2492Y-2.9581
T2
X6.0539Y-1.8335
X5.4634Y-1.8329
X5.7587Y-1.8327
X6.3492Y-1.8343
X6.3492Y-2.7112
T0
M30
