EESchema Schematic File Version 4
EELAYER 30 0
EELAYER END
$Descr A4 11693 8268
encoding utf-8
Sheet 1 1
Title ""
Date ""
Rev ""
Comp ""
Comment1 ""
Comment2 ""
Comment3 ""
Comment4 ""
$EndDescr
$Comp
L my_logo:MY_LOGO LOGO1
U 1 1 5FD5D4ED
P 3850 5200
F 0 "LOGO1" H 3820 5470 50  0001 C CNN
F 1 "MY_LOGO" H 3855 4925 50  0001 C CNN
F 2 "my_logo:extra_small" H 3850 5200 50  0001 C CNN
F 3 "" H 3850 5200 50  0001 C CNN
	1    3850 5200
	1    0    0    -1  
$EndComp
$Comp
L my_connector_debug:DebugCom_02x02 J2
U 1 1 5FD5D8C4
P 6050 3800
F 0 "J2" H 5872 3754 50  0000 R CNN
F 1 "DebugCom_02x02" H 5872 3845 50  0000 R CNN
F 2 "my_connector_debug:DebugEdge_2x02_Host" H 6000 4150 50  0001 C CNN
F 3 "" H 6000 4150 50  0001 C CNN
	1    6050 3800
	-1   0    0    1   
$EndComp
$Comp
L my_connector_debug:DebugCom_02x02 J1
U 1 1 5FD5DF2B
P 5100 3800
F 0 "J1" H 4922 3754 50  0000 R CNN
F 1 "DebugCom_02x02" H 4922 3845 50  0000 R CNN
F 2 "my_connector_wuerth:REDFIT_IDC_SKEDD_04-Pin" H 5050 4150 50  0001 C CNN
F 3 "" H 5050 4150 50  0001 C CNN
	1    5100 3800
	1    0    0    1   
$EndComp
Wire Wire Line
	5350 3650 5450 3650
Wire Wire Line
	5800 3750 5350 3750
Wire Wire Line
	5350 3850 5800 3850
Wire Wire Line
	5350 3950 5450 3950
$Comp
L power:VCC #PWR0101
U 1 1 5FD5FB76
P 5450 3400
F 0 "#PWR0101" H 5450 3250 50  0001 C CNN
F 1 "VCC" H 5465 3573 50  0000 C CNN
F 2 "" H 5450 3400 50  0001 C CNN
F 3 "" H 5450 3400 50  0001 C CNN
	1    5450 3400
	1    0    0    -1  
$EndComp
Wire Wire Line
	5450 3400 5450 3450
Connection ~ 5450 3650
Wire Wire Line
	5450 3650 5800 3650
$Comp
L power:GND #PWR0102
U 1 1 5FD604E0
P 5450 4250
F 0 "#PWR0102" H 5450 4000 50  0001 C CNN
F 1 "GND" H 5455 4077 50  0000 C CNN
F 2 "" H 5450 4250 50  0001 C CNN
F 3 "" H 5450 4250 50  0001 C CNN
	1    5450 4250
	1    0    0    -1  
$EndComp
Wire Wire Line
	5450 4250 5450 4200
Connection ~ 5450 3950
Wire Wire Line
	5450 3950 5800 3950
$Comp
L power:PWR_FLAG #FLG0101
U 1 1 5FD60A84
P 5550 3450
F 0 "#FLG0101" H 5550 3525 50  0001 C CNN
F 1 "PWR_FLAG" V 5550 3578 50  0000 L CNN
F 2 "" H 5550 3450 50  0001 C CNN
F 3 "~" H 5550 3450 50  0001 C CNN
	1    5550 3450
	0    1    1    0   
$EndComp
Wire Wire Line
	5550 3450 5450 3450
Connection ~ 5450 3450
Wire Wire Line
	5450 3450 5450 3650
$Comp
L power:PWR_FLAG #FLG0102
U 1 1 5FD6109D
P 5550 4200
F 0 "#FLG0102" H 5550 4275 50  0001 C CNN
F 1 "PWR_FLAG" V 5550 4328 50  0000 L CNN
F 2 "" H 5550 4200 50  0001 C CNN
F 3 "~" H 5550 4200 50  0001 C CNN
	1    5550 4200
	0    1    1    0   
$EndComp
Wire Wire Line
	5550 4200 5450 4200
Connection ~ 5450 4200
Wire Wire Line
	5450 4200 5450 3950
$EndSCHEMATC
