EESchema Schematic File Version 4
EELAYER 30 0
EELAYER END
$Descr A4 11693 8268
encoding utf-8
Sheet 1 1
Title ""
Date ""
Rev ""
Comp ""
Comment1 ""
Comment2 ""
Comment3 ""
Comment4 ""
$EndDescr
$Comp
L my_connector_debug:Debug_02x05 J1
U 1 1 5FD50167
P 4450 3000
F 0 "J1" H 4150 3600 50  0000 C CNN
F 1 "Debug_02x05" H 4350 2400 50  0000 C CNN
F 2 "my_connector_wuerth:REDFIT_IDC_SKEDD_10-Pin" H 4450 3400 50  0001 C CNN
F 3 "" H 4450 3400 50  0001 C CNN
	1    4450 3000
	1    0    0    -1  
$EndComp
$Comp
L my_connector_debug:Debug_02x05 J2
U 1 1 5FD505DD
P 5950 3000
F 0 "J2" H 6250 3600 50  0000 R CNN
F 1 "Debug_02x05" H 6250 2400 50  0000 R CNN
F 2 "my_connector_debug:DebugEdge_2x05_Host" H 5950 3400 50  0001 C CNN
F 3 "" H 5950 3400 50  0001 C CNN
	1    5950 3000
	-1   0    0    -1  
$EndComp
Wire Wire Line
	4850 2550 4950 2550
Wire Wire Line
	4850 2650 5550 2650
Wire Wire Line
	5550 2750 4850 2750
Wire Wire Line
	4850 2850 5550 2850
Wire Wire Line
	4850 3050 5550 3050
Wire Wire Line
	4850 3150 5550 3150
Wire Wire Line
	5550 3250 4850 3250
Wire Wire Line
	4850 3350 5550 3350
Wire Wire Line
	5550 3450 4850 3450
$Comp
L power:GND #PWR0101
U 1 1 5FD532FD
P 4950 3600
F 0 "#PWR0101" H 4950 3350 50  0001 C CNN
F 1 "GND" H 4955 3427 50  0000 C CNN
F 2 "" H 4950 3600 50  0001 C CNN
F 3 "" H 4950 3600 50  0001 C CNN
	1    4950 3600
	1    0    0    -1  
$EndComp
Wire Wire Line
	4950 3600 4950 2550
Connection ~ 4950 2550
Wire Wire Line
	4950 2550 5550 2550
$Comp
L power:VCC #PWR0102
U 1 1 5FD54AB6
P 5300 2400
F 0 "#PWR0102" H 5300 2250 50  0001 C CNN
F 1 "VCC" H 5315 2573 50  0000 C CNN
F 2 "" H 5300 2400 50  0001 C CNN
F 3 "" H 5300 2400 50  0001 C CNN
	1    5300 2400
	1    0    0    -1  
$EndComp
Wire Wire Line
	5300 2400 5300 2500
Wire Wire Line
	4850 2950 5300 2950
Connection ~ 5300 2950
Wire Wire Line
	5300 2950 5550 2950
$Comp
L power:PWR_FLAG #FLG0101
U 1 1 5FD55290
P 4950 2450
F 0 "#FLG0101" H 4950 2525 50  0001 C CNN
F 1 "PWR_FLAG" H 4950 2623 50  0000 C CNN
F 2 "" H 4950 2450 50  0001 C CNN
F 3 "~" H 4950 2450 50  0001 C CNN
	1    4950 2450
	1    0    0    -1  
$EndComp
Wire Wire Line
	4950 2450 4950 2550
$Comp
L power:PWR_FLAG #FLG0102
U 1 1 5FD55AA7
P 5500 2200
F 0 "#FLG0102" H 5500 2275 50  0001 C CNN
F 1 "PWR_FLAG" H 5500 2373 50  0000 C CNN
F 2 "" H 5500 2200 50  0001 C CNN
F 3 "~" H 5500 2200 50  0001 C CNN
	1    5500 2200
	1    0    0    -1  
$EndComp
Wire Wire Line
	5300 2500 5500 2500
Wire Wire Line
	5500 2500 5500 2200
Connection ~ 5300 2500
Wire Wire Line
	5300 2500 5300 2950
$Comp
L my_logo:MY_LOGO e1
U 1 1 5FD588E2
P 4150 4650
F 0 "e1" H 4120 4920 50  0001 C CNN
F 1 "MY_LOGO" H 4155 4375 50  0001 C CNN
F 2 "my_logo:extra_small" H 4150 4650 50  0001 C CNN
F 3 "" H 4150 4650 50  0001 C CNN
	1    4150 4650
	1    0    0    -1  
$EndComp
$EndSCHEMATC
