G04 #@! TF.GenerationSoftware,KiCad,Pcbnew,5.1.7-a382d34a8~88~ubuntu20.04.1*
G04 #@! TF.CreationDate,2020-12-13T01:00:43+01:00*
G04 #@! TF.ProjectId,wuerth_edgecom_adapter,77756572-7468-45f6-9564-6765636f6d5f,rev?*
G04 #@! TF.SameCoordinates,Original*
G04 #@! TF.FileFunction,Profile,NP*
%FSLAX46Y46*%
G04 Gerber Fmt 4.6, Leading zero omitted, Abs format (unit mm)*
G04 Created by KiCad (PCBNEW 5.1.7-a382d34a8~88~ubuntu20.04.1) date 2020-12-13 01:00:43*
%MOMM*%
%LPD*%
G01*
G04 APERTURE LIST*
G04 #@! TA.AperFunction,Profile*
%ADD10C,0.050000*%
G04 #@! TD*
%ADD11C,0.050000*%
G04 APERTURE END LIST*
D10*
X152894427Y-105788854D02*
X161560660Y-100560660D01*
X152895518Y-89211692D02*
X161560660Y-94439340D01*
X161560660Y-100560660D02*
G75*
G03*
X162000000Y-99500000I-1060660J1060660D01*
G01*
X161560660Y-94439340D02*
G75*
G02*
X162000000Y-95500000I-1060660J-1060660D01*
G01*
X152895518Y-89211692D02*
G75*
G03*
X152000000Y-89000000I-895518J-1788308D01*
G01*
X152894427Y-105788854D02*
G75*
G02*
X152000000Y-106000000I-894427J1788854D01*
G01*
X143000000Y-106000000D02*
X152000000Y-106000000D01*
X143000000Y-89000000D02*
X143000000Y-106000000D01*
X144000000Y-89000000D02*
X143000000Y-89000000D01*
X152000000Y-89000000D02*
X144000000Y-89000000D01*
X162000000Y-98500000D02*
X162000000Y-99500000D01*
X162000000Y-95500000D02*
X162000000Y-96500000D01*
X159400000Y-98000000D02*
X161500000Y-98000000D01*
X161500000Y-97000000D02*
X159400000Y-97000000D01*
X159400000Y-98000000D02*
G75*
G02*
X159400000Y-97000000I0J500000D01*
G01*
X162000000Y-96500000D02*
G75*
G02*
X161500000Y-97000000I-500000J0D01*
G01*
X161500000Y-98000000D02*
G75*
G02*
X162000000Y-98500000I0J-500000D01*
G01*
D11*
X150147619Y-98785714D02*
X150100000Y-98738095D01*
X150052380Y-98642857D01*
X150052380Y-98404761D01*
X150100000Y-98309523D01*
X150147619Y-98261904D01*
X150242857Y-98214285D01*
X150338095Y-98214285D01*
X150480952Y-98261904D01*
X151052380Y-98833333D01*
X151052380Y-98214285D01*
M02*
