G04 #@! TF.GenerationSoftware,KiCad,Pcbnew,5.1.7-a382d34a8~88~ubuntu20.04.1*
G04 #@! TF.CreationDate,2020-12-12T23:33:57+01:00*
G04 #@! TF.ProjectId,wuerth_edge_adapter,77756572-7468-45f6-9564-67655f616461,rev?*
G04 #@! TF.SameCoordinates,Original*
G04 #@! TF.FileFunction,Copper,L2,Bot*
G04 #@! TF.FilePolarity,Positive*
%FSLAX46Y46*%
G04 Gerber Fmt 4.6, Leading zero omitted, Abs format (unit mm)*
G04 Created by KiCad (PCBNEW 5.1.7-a382d34a8~88~ubuntu20.04.1) date 2020-12-12 23:33:57*
%MOMM*%
%LPD*%
G01*
G04 APERTURE LIST*
G04 #@! TA.AperFunction,SMDPad,CuDef*
%ADD10C,0.100000*%
G04 #@! TD*
G04 #@! TA.AperFunction,ComponentPad*
%ADD11C,1.420000*%
G04 #@! TD*
G04 #@! TA.AperFunction,Conductor*
%ADD12C,0.250000*%
G04 #@! TD*
G04 #@! TA.AperFunction,Conductor*
%ADD13C,0.025400*%
G04 #@! TD*
G04 #@! TA.AperFunction,Conductor*
%ADD14C,0.100000*%
G04 #@! TD*
G04 APERTURE END LIST*
G04 #@! TA.AperFunction,SMDPad,CuDef*
D10*
G36*
X146000000Y-75500000D02*
G01*
X146910000Y-75500000D01*
X146930000Y-75520000D01*
X146980000Y-75560000D01*
X147040000Y-75600000D01*
X147090000Y-75630000D01*
X147140000Y-75650000D01*
X147200000Y-75670000D01*
X147280000Y-75690000D01*
X147390000Y-75700000D01*
X149400000Y-75700000D01*
X149400000Y-76500000D01*
X145900000Y-76500000D01*
X146000000Y-75500000D01*
G37*
G04 #@! TD.AperFunction*
G04 #@! TA.AperFunction,SMDPad,CuDef*
G36*
X149400000Y-73500000D02*
G01*
X149400000Y-74300000D01*
X147390000Y-74300000D01*
X147280000Y-74310000D01*
X147200000Y-74330000D01*
X147140000Y-74350000D01*
X147090000Y-74370000D01*
X147040000Y-74400000D01*
X146980000Y-74440000D01*
X146930000Y-74480000D01*
X146910000Y-74500000D01*
X146000000Y-74500000D01*
X145900000Y-73500000D01*
X149400000Y-73500000D01*
G37*
G04 #@! TD.AperFunction*
G04 #@! TA.AperFunction,SMDPad,CuDef*
G36*
X145600000Y-79500000D02*
G01*
X149400000Y-79500000D01*
X149400000Y-80500000D01*
X145500000Y-80500000D01*
X145600000Y-79500000D01*
G37*
G04 #@! TD.AperFunction*
G04 #@! TA.AperFunction,SMDPad,CuDef*
G36*
X145800000Y-77500000D02*
G01*
X149400000Y-77500000D01*
X149400000Y-78500000D01*
X145700000Y-78500000D01*
X145800000Y-77500000D01*
G37*
G04 #@! TD.AperFunction*
G04 #@! TA.AperFunction,SMDPad,CuDef*
G36*
X149400000Y-71500000D02*
G01*
X149400000Y-72500000D01*
X145800000Y-72500000D01*
X145700000Y-71500000D01*
X149400000Y-71500000D01*
G37*
G04 #@! TD.AperFunction*
D11*
X132270000Y-81715000D03*
X129730000Y-80445000D03*
X132270000Y-79175000D03*
X129730000Y-77905000D03*
X132270000Y-71555000D03*
X132270000Y-74095000D03*
X132270000Y-76635000D03*
X129730000Y-70285000D03*
X129730000Y-72825000D03*
X129730000Y-75365000D03*
D12*
X132270000Y-81715000D02*
X141885000Y-81715000D01*
X143600000Y-80000000D02*
X147500000Y-80000000D01*
X141885000Y-81715000D02*
X143600000Y-80000000D01*
X142000000Y-72000000D02*
X147600000Y-72000000D01*
X137000000Y-67000000D02*
X142000000Y-72000000D01*
X130700000Y-67000000D02*
X137000000Y-67000000D01*
X128100000Y-69600000D02*
X130700000Y-67000000D01*
X128100000Y-78200000D02*
X128100000Y-69600000D01*
X129075000Y-79175000D02*
X128100000Y-78200000D01*
X132270000Y-79175000D02*
X129075000Y-79175000D01*
X132270000Y-74095000D02*
X136495000Y-74095000D01*
X147715010Y-76184990D02*
X147900000Y-76000000D01*
X138584990Y-76184990D02*
X147715010Y-76184990D01*
X136495000Y-74095000D02*
X138584990Y-76184990D01*
X132270000Y-76635000D02*
X142235000Y-76635000D01*
X143600000Y-78000000D02*
X147600000Y-78000000D01*
X142235000Y-76635000D02*
X143600000Y-78000000D01*
X129730000Y-72825000D02*
X144325000Y-72825000D01*
X145500000Y-74000000D02*
X147900000Y-74000000D01*
X144325000Y-72825000D02*
X145500000Y-74000000D01*
D13*
X132842998Y-81297904D02*
X132843742Y-81298555D01*
X132921949Y-81361795D01*
X132922773Y-81362408D01*
X133004499Y-81418208D01*
X133005394Y-81418766D01*
X133090641Y-81467126D01*
X133091590Y-81467614D01*
X133180357Y-81508534D01*
X133181343Y-81508939D01*
X133273629Y-81542419D01*
X133274629Y-81542735D01*
X133370436Y-81568775D01*
X133371429Y-81569003D01*
X133470755Y-81587603D01*
X133471723Y-81587746D01*
X133574570Y-81598906D01*
X133575496Y-81598972D01*
X133669607Y-81602263D01*
X133669607Y-81827737D01*
X133575496Y-81831027D01*
X133574570Y-81831093D01*
X133471723Y-81842253D01*
X133470755Y-81842396D01*
X133371429Y-81860996D01*
X133370436Y-81861224D01*
X133274629Y-81887264D01*
X133273629Y-81887580D01*
X133181343Y-81921060D01*
X133180357Y-81921465D01*
X133091590Y-81962385D01*
X133090641Y-81962873D01*
X133005394Y-82011233D01*
X133004499Y-82011791D01*
X132922773Y-82067591D01*
X132921949Y-82068204D01*
X132843742Y-82131444D01*
X132842998Y-82132095D01*
X132775185Y-82196270D01*
X131940426Y-81715000D01*
X132775186Y-81233730D01*
X132842998Y-81297904D01*
G04 #@! TA.AperFunction,Conductor*
D14*
G36*
X132842998Y-81297904D02*
G01*
X132843742Y-81298555D01*
X132921949Y-81361795D01*
X132922773Y-81362408D01*
X133004499Y-81418208D01*
X133005394Y-81418766D01*
X133090641Y-81467126D01*
X133091590Y-81467614D01*
X133180357Y-81508534D01*
X133181343Y-81508939D01*
X133273629Y-81542419D01*
X133274629Y-81542735D01*
X133370436Y-81568775D01*
X133371429Y-81569003D01*
X133470755Y-81587603D01*
X133471723Y-81587746D01*
X133574570Y-81598906D01*
X133575496Y-81598972D01*
X133669607Y-81602263D01*
X133669607Y-81827737D01*
X133575496Y-81831027D01*
X133574570Y-81831093D01*
X133471723Y-81842253D01*
X133470755Y-81842396D01*
X133371429Y-81860996D01*
X133370436Y-81861224D01*
X133274629Y-81887264D01*
X133273629Y-81887580D01*
X133181343Y-81921060D01*
X133180357Y-81921465D01*
X133091590Y-81962385D01*
X133090641Y-81962873D01*
X133005394Y-82011233D01*
X133004499Y-82011791D01*
X132922773Y-82067591D01*
X132921949Y-82068204D01*
X132843742Y-82131444D01*
X132842998Y-82132095D01*
X132775185Y-82196270D01*
X131940426Y-81715000D01*
X132775186Y-81233730D01*
X132842998Y-81297904D01*
G37*
G04 #@! TD.AperFunction*
D13*
X132599574Y-79175000D02*
X131764814Y-79656270D01*
X131697001Y-79592095D01*
X131696257Y-79591444D01*
X131618050Y-79528204D01*
X131617226Y-79527591D01*
X131535500Y-79471791D01*
X131534605Y-79471233D01*
X131449358Y-79422873D01*
X131448409Y-79422385D01*
X131359643Y-79381465D01*
X131358657Y-79381060D01*
X131266370Y-79347580D01*
X131265370Y-79347264D01*
X131169563Y-79321224D01*
X131168570Y-79320996D01*
X131069244Y-79302396D01*
X131068276Y-79302253D01*
X130965429Y-79291093D01*
X130964503Y-79291027D01*
X130870393Y-79287737D01*
X130870393Y-79062263D01*
X130964503Y-79058972D01*
X130965429Y-79058906D01*
X131068276Y-79047746D01*
X131069244Y-79047603D01*
X131168570Y-79029003D01*
X131169563Y-79028775D01*
X131265370Y-79002735D01*
X131266370Y-79002419D01*
X131358657Y-78968939D01*
X131359643Y-78968534D01*
X131448409Y-78927614D01*
X131449358Y-78927126D01*
X131534605Y-78878766D01*
X131535500Y-78878208D01*
X131617226Y-78822408D01*
X131618050Y-78821795D01*
X131696257Y-78758555D01*
X131697001Y-78757904D01*
X131764814Y-78693730D01*
X132599574Y-79175000D01*
G04 #@! TA.AperFunction,Conductor*
D14*
G36*
X132599574Y-79175000D02*
G01*
X131764814Y-79656270D01*
X131697001Y-79592095D01*
X131696257Y-79591444D01*
X131618050Y-79528204D01*
X131617226Y-79527591D01*
X131535500Y-79471791D01*
X131534605Y-79471233D01*
X131449358Y-79422873D01*
X131448409Y-79422385D01*
X131359643Y-79381465D01*
X131358657Y-79381060D01*
X131266370Y-79347580D01*
X131265370Y-79347264D01*
X131169563Y-79321224D01*
X131168570Y-79320996D01*
X131069244Y-79302396D01*
X131068276Y-79302253D01*
X130965429Y-79291093D01*
X130964503Y-79291027D01*
X130870393Y-79287737D01*
X130870393Y-79062263D01*
X130964503Y-79058972D01*
X130965429Y-79058906D01*
X131068276Y-79047746D01*
X131069244Y-79047603D01*
X131168570Y-79029003D01*
X131169563Y-79028775D01*
X131265370Y-79002735D01*
X131266370Y-79002419D01*
X131358657Y-78968939D01*
X131359643Y-78968534D01*
X131448409Y-78927614D01*
X131449358Y-78927126D01*
X131534605Y-78878766D01*
X131535500Y-78878208D01*
X131617226Y-78822408D01*
X131618050Y-78821795D01*
X131696257Y-78758555D01*
X131697001Y-78757904D01*
X131764814Y-78693730D01*
X132599574Y-79175000D01*
G37*
G04 #@! TD.AperFunction*
D13*
X132842998Y-73677904D02*
X132843742Y-73678555D01*
X132886110Y-73712815D01*
X132886110Y-74120200D01*
X133669607Y-74120200D01*
X133669607Y-74207737D01*
X133575496Y-74211027D01*
X133574570Y-74211093D01*
X133471723Y-74222253D01*
X133470755Y-74222396D01*
X133371429Y-74240996D01*
X133370436Y-74241224D01*
X133274629Y-74267264D01*
X133273629Y-74267580D01*
X133181343Y-74301060D01*
X133180357Y-74301465D01*
X133091590Y-74342385D01*
X133090641Y-74342873D01*
X133005394Y-74391233D01*
X133004499Y-74391791D01*
X132922773Y-74447591D01*
X132921949Y-74448204D01*
X132843742Y-74511444D01*
X132842998Y-74512095D01*
X132775185Y-74576270D01*
X131940426Y-74095000D01*
X132775186Y-73613730D01*
X132842998Y-73677904D01*
G04 #@! TA.AperFunction,Conductor*
D14*
G36*
X132842998Y-73677904D02*
G01*
X132843742Y-73678555D01*
X132886110Y-73712815D01*
X132886110Y-74120200D01*
X133669607Y-74120200D01*
X133669607Y-74207737D01*
X133575496Y-74211027D01*
X133574570Y-74211093D01*
X133471723Y-74222253D01*
X133470755Y-74222396D01*
X133371429Y-74240996D01*
X133370436Y-74241224D01*
X133274629Y-74267264D01*
X133273629Y-74267580D01*
X133181343Y-74301060D01*
X133180357Y-74301465D01*
X133091590Y-74342385D01*
X133090641Y-74342873D01*
X133005394Y-74391233D01*
X133004499Y-74391791D01*
X132922773Y-74447591D01*
X132921949Y-74448204D01*
X132843742Y-74511444D01*
X132842998Y-74512095D01*
X132775185Y-74576270D01*
X131940426Y-74095000D01*
X132775186Y-73613730D01*
X132842998Y-73677904D01*
G37*
G04 #@! TD.AperFunction*
D13*
X132842998Y-76217904D02*
X132843742Y-76218555D01*
X132921949Y-76281795D01*
X132922773Y-76282408D01*
X133004499Y-76338208D01*
X133005394Y-76338766D01*
X133090641Y-76387126D01*
X133091590Y-76387614D01*
X133180357Y-76428534D01*
X133181343Y-76428939D01*
X133273629Y-76462419D01*
X133274629Y-76462735D01*
X133370436Y-76488775D01*
X133371429Y-76489003D01*
X133470755Y-76507603D01*
X133471723Y-76507746D01*
X133574570Y-76518906D01*
X133575496Y-76518972D01*
X133669607Y-76522263D01*
X133669607Y-76747737D01*
X133575496Y-76751027D01*
X133574570Y-76751093D01*
X133471723Y-76762253D01*
X133470755Y-76762396D01*
X133371429Y-76780996D01*
X133370436Y-76781224D01*
X133274629Y-76807264D01*
X133273629Y-76807580D01*
X133181343Y-76841060D01*
X133180357Y-76841465D01*
X133091590Y-76882385D01*
X133090641Y-76882873D01*
X133005394Y-76931233D01*
X133004499Y-76931791D01*
X132922773Y-76987591D01*
X132921949Y-76988204D01*
X132843742Y-77051444D01*
X132842998Y-77052095D01*
X132775185Y-77116270D01*
X131940426Y-76635000D01*
X132775186Y-76153730D01*
X132842998Y-76217904D01*
G04 #@! TA.AperFunction,Conductor*
D14*
G36*
X132842998Y-76217904D02*
G01*
X132843742Y-76218555D01*
X132921949Y-76281795D01*
X132922773Y-76282408D01*
X133004499Y-76338208D01*
X133005394Y-76338766D01*
X133090641Y-76387126D01*
X133091590Y-76387614D01*
X133180357Y-76428534D01*
X133181343Y-76428939D01*
X133273629Y-76462419D01*
X133274629Y-76462735D01*
X133370436Y-76488775D01*
X133371429Y-76489003D01*
X133470755Y-76507603D01*
X133471723Y-76507746D01*
X133574570Y-76518906D01*
X133575496Y-76518972D01*
X133669607Y-76522263D01*
X133669607Y-76747737D01*
X133575496Y-76751027D01*
X133574570Y-76751093D01*
X133471723Y-76762253D01*
X133470755Y-76762396D01*
X133371429Y-76780996D01*
X133370436Y-76781224D01*
X133274629Y-76807264D01*
X133273629Y-76807580D01*
X133181343Y-76841060D01*
X133180357Y-76841465D01*
X133091590Y-76882385D01*
X133090641Y-76882873D01*
X133005394Y-76931233D01*
X133004499Y-76931791D01*
X132922773Y-76987591D01*
X132921949Y-76988204D01*
X132843742Y-77051444D01*
X132842998Y-77052095D01*
X132775185Y-77116270D01*
X131940426Y-76635000D01*
X132775186Y-76153730D01*
X132842998Y-76217904D01*
G37*
G04 #@! TD.AperFunction*
D13*
X130302998Y-72407904D02*
X130303742Y-72408555D01*
X130381949Y-72471795D01*
X130382773Y-72472408D01*
X130464499Y-72528208D01*
X130465394Y-72528766D01*
X130550641Y-72577126D01*
X130551590Y-72577614D01*
X130640357Y-72618534D01*
X130641343Y-72618939D01*
X130733629Y-72652419D01*
X130734629Y-72652735D01*
X130830436Y-72678775D01*
X130831429Y-72679003D01*
X130930755Y-72697603D01*
X130931723Y-72697746D01*
X131034570Y-72708906D01*
X131035496Y-72708972D01*
X131129607Y-72712263D01*
X131129607Y-72937737D01*
X131035496Y-72941027D01*
X131034570Y-72941093D01*
X130931723Y-72952253D01*
X130930755Y-72952396D01*
X130831429Y-72970996D01*
X130830436Y-72971224D01*
X130734629Y-72997264D01*
X130733629Y-72997580D01*
X130641343Y-73031060D01*
X130640357Y-73031465D01*
X130551590Y-73072385D01*
X130550641Y-73072873D01*
X130465394Y-73121233D01*
X130464499Y-73121791D01*
X130382773Y-73177591D01*
X130381949Y-73178204D01*
X130303742Y-73241444D01*
X130302998Y-73242095D01*
X130235185Y-73306270D01*
X129400426Y-72825000D01*
X130235186Y-72343730D01*
X130302998Y-72407904D01*
G04 #@! TA.AperFunction,Conductor*
D14*
G36*
X130302998Y-72407904D02*
G01*
X130303742Y-72408555D01*
X130381949Y-72471795D01*
X130382773Y-72472408D01*
X130464499Y-72528208D01*
X130465394Y-72528766D01*
X130550641Y-72577126D01*
X130551590Y-72577614D01*
X130640357Y-72618534D01*
X130641343Y-72618939D01*
X130733629Y-72652419D01*
X130734629Y-72652735D01*
X130830436Y-72678775D01*
X130831429Y-72679003D01*
X130930755Y-72697603D01*
X130931723Y-72697746D01*
X131034570Y-72708906D01*
X131035496Y-72708972D01*
X131129607Y-72712263D01*
X131129607Y-72937737D01*
X131035496Y-72941027D01*
X131034570Y-72941093D01*
X130931723Y-72952253D01*
X130930755Y-72952396D01*
X130831429Y-72970996D01*
X130830436Y-72971224D01*
X130734629Y-72997264D01*
X130733629Y-72997580D01*
X130641343Y-73031060D01*
X130640357Y-73031465D01*
X130551590Y-73072385D01*
X130550641Y-73072873D01*
X130465394Y-73121233D01*
X130464499Y-73121791D01*
X130382773Y-73177591D01*
X130381949Y-73178204D01*
X130303742Y-73241444D01*
X130302998Y-73242095D01*
X130235185Y-73306270D01*
X129400426Y-72825000D01*
X130235186Y-72343730D01*
X130302998Y-72407904D01*
G37*
G04 #@! TD.AperFunction*
M02*
